<svg version="1.1" id="download" xmlns="http://www.w3.org/2000/svg" xmlns:xlink="http://www.w3.org/1999/xlink" x="0px" y="0px"
	 viewBox="0 0 234 164.8" style="enable-background:new 0 0 234 164.8;" xml:space="preserve">
<path id="download-ico" class="ico" d="M205.6,114.7v34.2c0,8.8-7.2,16-16,16H44.3c-8.8,0-16-7.2-16-16v-34.2c0-4.1,3.4-7.5,7.5-7.5
	s7.5,3.4,7.5,7.5v34.2c0,0.6,0.4,1,1,1h145.3c0.6,0,1-0.4,1-1v-34.2c0-4.1,3.4-7.5,7.5-7.5S205.6,110.6,205.6,114.7z M63.2,83.5
	l48.9,41.5c0,0,0,0,0,0c0.3,0.3,0.6,0.5,1,0.7c0,0,0.1,0.1,0.1,0.1c0.3,0.2,0.7,0.4,1.1,0.5c0.1,0,0.1,0,0.2,0.1
	c0.4,0.1,0.7,0.2,1.1,0.3c0.1,0,0.1,0,0.2,0c0.4,0.1,0.8,0.1,1.2,0.1c0.4,0,0.8,0,1.2-0.1c0.1,0,0.1,0,0.2,0
	c0.4-0.1,0.8-0.2,1.1-0.3c0.1,0,0.1,0,0.2-0.1c0.4-0.1,0.7-0.3,1.1-0.5c0,0,0.1-0.1,0.1-0.1c0.4-0.2,0.7-0.4,1-0.7c0,0,0,0,0,0
	l48.9-41.5c3.2-2.7,3.5-7.4,0.9-10.6c-2.7-3.2-7.4-3.5-10.6-0.9l-36.5,31V7.5c0-4.1-3.4-7.5-7.5-7.5c-4.1,0-7.5,3.4-7.5,7.5v95.6
	L73,72.1c-3.2-2.7-7.9-2.3-10.6,0.9C59.7,76.1,60.1,80.8,63.2,83.5z"/>
</svg>
